<?xml version="1.0" encoding="UTF-8" standalone="no"?>
<!DOCTYPE svg PUBLIC "-//W3C//DTD SVG 20010904//EN" "http://www.w3.org/TR/2001/REC-SVG-20010904/DTD/svg10.dtd">
<svg xmlns="http://www.w3.org/2000/svg" width="100%" height="100%" viewBox="0 0 1000 1000">
  	<path id="flag_left" fill="#43a047" stroke="#43a047" stroke-width="1"
        d="M 501.00,19.00
           C 498.50,29.50 497.00,31.00 493.00,45.50
             490.50,140.00 489.00,258.75 488.50,279.75
             494.75,278.25 498.75,277.25 498.75,277.25
             498.75,277.25 505.75,278.00 505.75,278.00
             505.75,278.00 507.50,172.00 507.50,172.00
             507.50,172.00 545.00,148.75 583.25,150.75
             583.50,151.00 582.25,201.50 582.25,209.25
             587.00,203.50 596.00,195.00 608.75,192.25
             617.50,177.25 626.75,75.75 619.75,63.25
             600.00,24.75 516.50,49.00 508.50,53.25
             508.50,53.25 508.25,43.00 508.25,43.00
             508.25,43.00 501.75,18.25 501.75,18.25" />
  	<path id="flag_right" fill="#2e7d32" stroke="#2e7d32" stroke-width="1"
        d="M 583.00,209.25
           C 616.00,265.50 750.75,204.75 781.25,145.25
             687.50,161.75 635.75,127.75 620.75,109.50
             619.75,137.75 616.00,174.25 609.50,191.00
             602.50,193.75 588.50,197.25 582.50,209.25" />
    <path id="top_left" fill="#43a047" stroke="#43a047" stroke-width="1"
        d="M 500.50,455.50
           C 500.50,455.50 500.00,276.50 500.00,276.50
             500.00,276.50 404.50,304.00 404.50,304.00
             404.50,304.00 404.50,386.50 404.50,386.50
             404.50,386.50 317.00,412.00 317.00,412.00
             317.00,412.00 317.50,328.00 317.50,328.00
             317.50,328.00 224.75,354.75 224.75,354.75
             224.75,354.75 224.75,438.50 224.75,438.50
             224.75,438.50 135.75,464.00 135.75,464.00
             135.75,464.00 136.13,379.25 136.13,379.25
             136.13,379.25 45.88,405.25 45.88,405.25
             45.88,405.25 46.00,586.63 46.00,586.63
             46.00,586.63 500.63,455.63 500.50,455.50" />
    <path id="top_right" fill="#2e7d32" stroke="#2e7d32" stroke-width="1"
        d="M 500.50,455.50
           C 500.50,455.50 500.00,276.50 500.00,276.50
             500.00,276.50 595.13,304.00 595.13,304.00
             595.13,304.00 594.88,386.25 594.88,386.25
             594.88,386.25 683.75,412.38 683.75,412.38
             683.75,412.38 683.88,328.50 683.88,328.50
             683.88,328.50 775.00,355.13 775.00,355.13
             775.00,355.13 775.00,438.63 775.00,438.63
             775.00,438.63 865.00,465.75 865.00,465.75
             865.00,465.75 864.88,380.00 864.88,380.00
             864.88,380.00 953.75,405.13 953.75,405.13
             953.75,405.13 953.88,586.75 953.88,586.75
             953.88,586.75 500.38,455.50 500.50,455.50" />
    <path id="left_shadow1" fill="#2e7d32" stroke="#2e7d32" stroke-width="1"
        d="M 317.38,328.00
           C 317.38,328.00 372.75,351.75 372.75,351.75
             372.75,351.75 372.88,395.50 372.88,395.50
             372.88,395.50 316.75,412.00 316.75,412.00
             316.75,412.00 317.38,327.88 317.38,328.00" />
    <path id="left_shadow2" fill="#2e7d32" stroke="#2e7d32" stroke-width="1"
        d="M 136.13,379.13
           C 136.13,379.13 191.75,402.75 191.75,402.75
             191.75,402.75 191.88,447.63 191.88,447.63
             191.88,447.63 135.50,464.00 135.50,464.00
             135.50,464.00 136.13,379.00 136.13,379.13" />
    <path id="right_shadow1" fill="#43a047" stroke="#43a047" stroke-width="1"
        d="M 683.75,328.63
           C 683.75,328.63 627.88,353.50 627.88,353.50
             627.88,353.50 627.88,395.88 627.88,395.88
             627.88,395.88 683.75,412.50 683.75,412.50
             683.75,412.50 683.88,328.38 683.75,328.63" />
    <path id="right_shadow2" fill="#43a047" stroke="#43a047" stroke-width="1"
        d="M 864.88,380.13
           C 864.88,380.13 809.00,404.50 809.00,404.50
             809.00,404.50 808.88,448.75 808.88,448.75
             808.88,448.75 865.00,465.75 865.00,465.75
             865.00,465.75 864.88,380.00 864.88,380.13" />
    <path id="bottom_left" fill="#43a047" stroke="#43a047" stroke-width="1"
        d="M 114.00,598.25
           C 114.00,598.25 114.00,983.50 114.00,983.50
             114.00,983.50 500.00,891.00 500.00,891.00
             500.00,891.00 500.00,494.38 500.00,494.38
             500.00,494.38 114.00,598.50 114.00,598.25" />
    <path id="bottom_right" fill="#2e7d32" stroke="#2e7d32" stroke-width="1"
        d="M 500.00,891.00
           C 500.00,891.00 500.00,494.38 500.00,494.38
             500.00,494.38 885.63,598.38 885.63,598.38
             885.63,598.38 885.75,983.63 885.75,983.63
             885.75,983.63 500.13,891.13 500.00,891.00" />
    <path id="window" fill="#2e7d32" stroke="#2e7d32" stroke-width="1"
        d="M 251.88,756.75
           C 251.88,756.75 252.00,873.50 252.00,873.50
             252.00,873.50 348.75,851.88 348.75,851.88
             348.75,851.88 347.88,752.00 347.88,752.00
             347.88,752.00 345.00,708.13 301.50,706.25
             260.88,708.75 250.75,752.13 251.88,756.75" />
</svg>
